KHstats - Alluvial Plots (Sankey Diagrams) for Time-Varying Survival Data
…
Step 2

sofa_wide |>
    filter(score_type == subscore) |>
      group_by(day0, day1, day2, day3) |>
    count(.drop = F) 

# A tibble: 32 × 5
# Groups:   day0, day1, day2, day3 [32]
   day0  day1  day2       day3           n
   <fct> <fct> <fct>      <fct>      <int>
 1 0     0     0          0             45
 2 0     0     0          1              1
 3 0     0     0          Discharged     7
 4 0     0     1          0              1
 5 0     0     1          1              2
 6 0     0     Discharged Discharged     1
 7 0     1     0          0              7
 8 0     1     0          1              1
 9 0     1     1          0              3
10 0     1     1          1              2
# … with 22 more rows

Step 3

sofa_wide |>
    filter(score_type == subscore) |>
    group_by(day0, day1, day2, day3) |>
    count(.drop = F) |>
    ungroup() |>
    to_lodes_form(key = "day", axes = 1:4)

# A tibble: 128 × 4
       n alluvium day   stratum
   <int>    <int> <fct> <fct>  
 1    45        1 day0  0      
 2     1        2 day0  0      
 3     7        3 day0  0      
 4     1        4 day0  0      
 5     2        5 day0  0      
 6     1        6 day0  0      
 7     7        7 day0  0      
 8     1        8 day0  0      
 9     3        9 day0  0      
10     2       10 day0  0      
# … with 118 more rows

sofa_wide |>
    filter(score_type == subscore) |>
    group_by(day0, day1, day2, day3) |>
    count(.drop = F) |>
    ungroup() |>
    to_lodes_form(key = "day", axes = 1:4)  |>
    mutate(day = case_when(day == "day0" ~ "B",
                           TRUE ~ as.character(parse_number(as.character(day)))),
           day = fct_relevel(day, "B"))

# A tibble: 128 × 4
       n alluvium day   stratum
   <int>    <int> <fct> <fct>  
 1    45        1 B     0      
 2     1        2 B     0      
 3     7        3 B     0      
 4     1        4 B     0      
 5     2        5 B     0      
 6     1        6 B     0      
 7     7        7 B     0      
 8     1        8 B     0      
 9     3        9 B     0      
10     2       10 B     0      
# … with 118 more rows
…
