KHstats - Silver Linings: five coding tricks learned during Lockdown
…
patients

A tibble: 5 × 9

 id admit_dt            death_or_discharge_dt   age sex    height weight

       1 100 2020-03-21 00:10:00 2020-05-13 12:10:00 64 Male 68 199 2 104 2020-04-03 12:15:00 2020-04-29 18:34:00 25 Male 72 NA 3 106 2020-03-28 12:22:00 2020-04-05 19:18:00 49 Female 64 189 4 107 2020-04-10 18:15:00 2020-04-14 19:12:00 88 Male 62 111 5 111 2020-04-18 00:49:00 2020-04-25 19:18:00 61 Female 67 156 # … with 2 more variables: current_smoker , immunosuppressed 

labs

A tibble: 1,623 × 4

  id lab_time            lab_name                  lab_value

1 100 2020-05-02 03:00:00 Platelet Count 245

2 100 2020-03-20 20:00:00 C-Reactive Protein >1000

3 100 2020-05-15 07:00:00 C-Reactive Protein 620

4 100 2020-04-29 00:00:00 Absolute Lymphocyte Count 937

5 100 2020-05-02 08:00:00 Platelet Count 984

6 100 2020-04-13 14:00:00 Absolute Lymphocyte Count 177

7 100 2020-04-30 15:00:00 LYMPHOCYTE PERC 227

8 100 2020-03-24 19:00:00 LYMPHOCYTE PERC 405

9 100 2020-03-12 04:00:00 C-Reactive Protein 878

10 100 2020-04-09 11:00:00 Platelet Count 711

# … with 1,613 more rows
…
patient_labs <-
  patients %>%
  left_join(labs)

Joining, by = "id"
left_join: added 3 columns (lab_time, lab_name, lab_value)
> rows only in x 1
> rows only in y (994)
> matched rows 629 (includes duplicates)
> =====
> rows total 630

patient_labs

A tibble: 630 × 11

  id admit_dt            death_or_discharge_dt   age sex   current…¹ immun…²

1 100 2020-03-21 00:10:00 2020-05-13 12:10:00 64 Male Yes No

2 100 2020-03-21 00:10:00 2020-05-13 12:10:00 64 Male Yes No

3 100 2020-03-21 00:10:00 2020-05-13 12:10:00 64 Male Yes No

4 100 2020-03-21 00:10:00 2020-05-13 12:10:00 64 Male Yes No

5 100 2020-03-21 00:10:00 2020-05-13 12:10:00 64 Male Yes No

6 100 2020-03-21 00:10:00 2020-05-13 12:10:00 64 Male Yes No

7 100 2020-03-21 00:10:00 2020-05-13 12:10:00 64 Male Yes No

8 100 2020-03-21 00:10:00 2020-05-13 12:10:00 64 Male Yes No

9 100 2020-03-21 00:10:00 2020-05-13 12:10:00 64 Male Yes No

10 100 2020-03-21 00:10:00 2020-05-13 12:10:00 64 Male Yes No

# … with 620 more rows, 4 more variables: bmi , lab_time , # lab_name , lab_value , and abbreviated variable names # ¹​current_smoker, ²​immunosuppressed
…
